asd123322sa1,NIL,LIL
asd123322sa2,NIL,LIL
asd123322sa3,NIL,LIL
asd123322sa4,NIL,LIL
asd123322sa5,NIL,LIL
asd123322sa6,NIL,LIL
asd123322sa7,NIL,MAL
asd123322sa8,NIL,MAL
asd123322sa9,NIL,MAL
asd123322sa10,NIL,MAL
asd123322sa11,NIL,MAL
asd123322sa12,NIL,MAL
asd123322sa13,NIL,MAL
asd123322sa14,NIL,MAL
asd123322sa15,NIL,MAL
asd123322sa16,NIL,MAL
asd123322sa17,NIL,MAL
asd123322sa18,NIL,MAL
asd123322sa19,NIL,MAL
asd123322sa20,NIL,CIL
asd123322sa21,NIL,CIL
asd123322sa22,NIL,CIL
asd123322sa23,NIL,CIL
asd123322sa24,NIL,CIL
asd123322sa25,NIL,CIL
asd123322sa26,NIL,CIL
asd123322sa27,NIL,CIL
asd123322sa28,NIL,CIL
asd123322sa29,NIL,CIL
asd123322sa30,NIL,CIL
